…
## Practice
1. Filter the `homerange` data to include `mammals` only.

```r
homerange %>% 
  filter(taxon=="mammals")
```

```
## # A tibble: 238 × 24
##    taxon   common.name      class order family genus species primarymethod N    
##    <chr>   <chr>            <chr> <chr> <chr>  <chr> <chr>   <chr>         <chr>
##  1 mammals giant golden mo… mamm… afro… chrys… chry… trevel… telemetry*    <NA> 
##  2 mammals Grant's golden … mamm… afro… chrys… erem… granti  telemetry*    <NA> 
##  3 mammals pronghorn        mamm… arti… antil… anti… americ… telemetry*    <NA> 
##  4 mammals impala           mamm… arti… bovid… aepy… melamp… telemetry*    <NA> 
##  5 mammals hartebeest       mamm… arti… bovid… alce… busela… telemetry*    <NA> 
##  6 mammals barbary sheep    mamm… arti… bovid… ammo… lervia  telemetry*    <NA> 
##  7 mammals American bison   mamm… arti… bovid… bison bison   telemetry*    <NA> 
##  8 mammals European bison   mamm… arti… bovid… bison bonasus telemetry*    <NA> 
##  9 mammals goat             mamm… arti… bovid… capra hircus  telemetry*    <NA> 
## 10 mammals Spanish ibex     mamm… arti… bovid… capra pyrena… telemetry*    <NA> 
## # ℹ 228 more rows
## # ℹ 15 more variables: mean.mass.g <dbl>, log10.mass <dbl>,
## #   alternative.mass.reference <chr>, mean.hra.m2 <dbl>, log10.hra <dbl>,
## #   hra.reference <chr>, realm <chr>, thermoregulation <chr>, locomotion <chr>,
## #   trophic.guild <chr>, dimension <dbl>, preymass <dbl>, log10.preymass <dbl>,
## #   PPMR <dbl>, prey.size.reference <chr>
```
…
