…
2. Are these data "tidy" per the definitions of the tidyverse? How do you know? Are they in wide or long format?

```r
sydneybeaches
```

```
## # A tibble: 3,690 × 8
##    beach_id region  council site  longitude latitude date  enterococci_cfu_100ml
##       <dbl> <chr>   <chr>   <chr>     <dbl>    <dbl> <chr>                 <dbl>
##  1       25 Sydney… Randwi… Clov…      151.    -33.9 02/0…                    19
##  2       25 Sydney… Randwi… Clov…      151.    -33.9 06/0…                     3
##  3       25 Sydney… Randwi… Clov…      151.    -33.9 12/0…                     2
##  4       25 Sydney… Randwi… Clov…      151.    -33.9 18/0…                    13
##  5       25 Sydney… Randwi… Clov…      151.    -33.9 30/0…                     8
##  6       25 Sydney… Randwi… Clov…      151.    -33.9 05/0…                     7
##  7       25 Sydney… Randwi… Clov…      151.    -33.9 11/0…                    11
##  8       25 Sydney… Randwi… Clov…      151.    -33.9 23/0…                    97
##  9       25 Sydney… Randwi… Clov…      151.    -33.9 07/0…                     3
## 10       25 Sydney… Randwi… Clov…      151.    -33.9 25/0…                     0
## # ℹ 3,680 more rows
```
The data is not tidy, it is long. 

3. We are only interested in the variables site, date, and enterococci_cfu_100ml. Make a new object focused on these variables only. Name the object `sydneybeaches_long`

```r
sydneybeaches_long <- sydneybeaches %>% 
  select(site, date, enterococci_cfu_100ml)
sydneybeaches_long
```

```
## # A tibble: 3,690 × 3
##    site           date       enterococci_cfu_100ml
##    <chr>          <chr>                      <dbl>
##  1 Clovelly Beach 02/01/2013                    19
##  2 Clovelly Beach 06/01/2013                     3
##  3 Clovelly Beach 12/01/2013                     2
##  4 Clovelly Beach 18/01/2013                    13
##  5 Clovelly Beach 30/01/2013                     8
##  6 Clovelly Beach 05/02/2013                     7
##  7 Clovelly Beach 11/02/2013                    11
##  8 Clovelly Beach 23/02/2013                    97
##  9 Clovelly Beach 07/03/2013                     3
## 10 Clovelly Beach 25/03/2013                     0
## # ℹ 3,680 more rows
```

4. Pivot the data such that the dates are column names and each beach only appears once (wide format). Name the object `sydneybeaches_wide`

```r
sydneybeaches2 <- sydneybeaches %>% 
  pivot_wider(names_from = "date", 
              values_from = "site")
sydneybeaches2
```

```
## # A tibble: 754 × 350
##    beach_id region council longitude latitude enterococci_cfu_100ml `02/01/2013`
##       <dbl> <chr>  <chr>       <dbl>    <dbl>                 <dbl> <chr>       
##  1       25 Sydne… Randwi…      151.    -33.9                    19 Clovelly Be…
##  2       25 Sydne… Randwi…      151.    -33.9                     3 <NA>        
##  3       25 Sydne… Randwi…      151.    -33.9                     2 <NA>        
##  4       25 Sydne… Randwi…      151.    -33.9                    13 <NA>        
##  5       25 Sydne… Randwi…      151.    -33.9                     8 <NA>        
##  6       25 Sydne… Randwi…      151.    -33.9                     7 <NA>        
##  7       25 Sydne… Randwi…      151.    -33.9                    11 <NA>        
##  8       25 Sydne… Randwi…      151.    -33.9                    97 <NA>        
##  9       25 Sydne… Randwi…      151.    -33.9                     0 <NA>        
## 10       25 Sydne… Randwi…      151.    -33.9                     6 <NA>        
## # ℹ 744 more rows
## # ℹ 343 more variables: `06/01/2013` <chr>, `12/01/2013` <chr>,
## #   `18/01/2013` <chr>, `30/01/2013` <chr>, `05/02/2013` <chr>,
## #   `11/02/2013` <chr>, `23/02/2013` <chr>, `07/03/2013` <chr>,
## #   `25/03/2013` <chr>, `02/04/2013` <chr>, `12/04/2013` <chr>,
## #   `18/04/2013` <chr>, `24/04/2013` <chr>, `01/05/2013` <chr>,
## #   `20/05/2013` <chr>, `31/05/2013` <chr>, `06/06/2013` <chr>, …
```

5. Pivot the data back so that the dates are data and not column names.

```r
sydneybeaches2 %>% 
  pivot_longer(-c(beach_id, region, council, longitude, latitude, enterococci_cfu_100ml), 
               names_to= "date")
```

```
## # A tibble: 259,376 × 8
##    beach_id region  council longitude latitude enterococci_cfu_100ml date  value
##       <dbl> <chr>   <chr>       <dbl>    <dbl>                 <dbl> <chr> <chr>
##  1       25 Sydney… Randwi…      151.    -33.9                    19 02/0… Clov…
##  2       25 Sydney… Randwi…      151.    -33.9                    19 06/0… <NA> 
##  3       25 Sydney… Randwi…      151.    -33.9                    19 12/0… <NA> 
##  4       25 Sydney… Randwi…      151.    -33.9                    19 18/0… <NA> 
##  5       25 Sydney… Randwi…      151.    -33.9                    19 30/0… <NA> 
##  6       25 Sydney… Randwi…      151.    -33.9                    19 05/0… <NA> 
##  7       25 Sydney… Randwi…      151.    -33.9                    19 11/0… <NA> 
##  8       25 Sydney… Randwi…      151.    -33.9                    19 23/0… <NA> 
##  9       25 Sydney… Randwi…      151.    -33.9                    19 07/0… <NA> 
## 10       25 Sydney… Randwi…      151.    -33.9                    19 25/0… <NA> 
## # ℹ 259,366 more rows
```

6. We haven't dealt much with dates yet, but separate the date into columns day, month, and year. Do this on the `sydneybeaches_long` data.

```r
sydneybeaches3 <- sydneybeaches_long %>% 
  separate(date, into=c("month","day", "year"), sep="/")
sydneybeaches3
```

```
## # A tibble: 3,690 × 5
##    site           month day   year  enterococci_cfu_100ml
##    <chr>          <chr> <chr> <chr>                 <dbl>
##  1 Clovelly Beach 02    01    2013                     19
##  2 Clovelly Beach 06    01    2013                      3
##  3 Clovelly Beach 12    01    2013                      2
##  4 Clovelly Beach 18    01    2013                     13
##  5 Clovelly Beach 30    01    2013                      8
##  6 Clovelly Beach 05    02    2013                      7
##  7 Clovelly Beach 11    02    2013                     11
##  8 Clovelly Beach 23    02    2013                     97
##  9 Clovelly Beach 07    03    2013                      3
## 10 Clovelly Beach 25    03    2013                      0
## # ℹ 3,680 more rows
```
…
