…
Problem 9. (5 points) Among the YNP wolf packs, which one has had the highest overall persistence `persisty1` for the years represented in the data? Look this pack up online and tell me what is unique about its behavior- specifically, what prey animals does this pack specialize on?  

```r
ynp %>% 
  group_by(pack) %>% 
  filter(persisty1=="1") %>% 
  count(persisty1) %>% 
  arrange(desc(n))
```

```
## # A tibble: 38 × 3
## # Groups:   pack [38]
##    pack        persisty1     n
##    <chr>           <int> <int>
##  1 mollies             1    26
##  2 cougar              1    20
##  3 yelldelta           1    18
##  4 druid               1    13
##  5 leopold             1    12
##  6 agate               1    10
##  7 8mile               1     9
##  8 canyon              1     9
##  9 gibbon/mary         1     9
## 10 nezperce            1     9
## # ℹ 28 more rows
```
…
