…
```r
sharks %>% 
  group_by(county, injury) %>% 
  select(county, injury) %>% 
  summarize(total=n())
```

```
## `summarise()` has grouped output by 'county'. You can override using the
## `.groups` argument.
```

```
## # A tibble: 57 × 3
## # Groups:   county [21]
##    county              injury total
##    <chr>               <chr>  <int>
##  1 Del Norte           minor      2
##  2 Del Norte           none       1
##  3 Humboldt            major      7
##  4 Humboldt            minor      2
##  5 Humboldt            none       9
##  6 Island - Catalina   minor      1
##  7 Island - Catalina   none       3
##  8 Island - Farallones major      7
##  9 Island - San Miguel fatal      1
## 10 Island - San Miguel major      2
## # ℹ 47 more rows
```
…
