…
2. Notice that we have some neutral superheros! Who are they? List their names below.  

```r
superhero_info %>% 
  select(name, alignment) %>% 
  filter(alignment=="neutral")
```

```
## # A tibble: 24 × 2
##    name         alignment
##    <chr>        <chr>    
##  1 Bizarro      neutral  
##  2 Black Flash  neutral  
##  3 Captain Cold neutral  
##  4 Copycat      neutral  
##  5 Deadpool     neutral  
##  6 Deathstroke  neutral  
##  7 Etrigan      neutral  
##  8 Galactus     neutral  
##  9 Gladiator    neutral  
## 10 Indigo       neutral  
## # ℹ 14 more rows
```

## `superhero_info`
3. Let's say we are only interested in the variables name, alignment, and "race". How would you isolate these variables from `superhero_info`?

```r
superhero_info %>% 
  select(name, alignment, race)
```

```
## # A tibble: 734 × 3
##    name          alignment race             
##    <chr>         <chr>     <chr>            
##  1 A-Bomb        good      Human            
##  2 Abe Sapien    good      Icthyo Sapien    
##  3 Abin Sur      good      Ungaran          
##  4 Abomination   bad       Human / Radiation
##  5 Abraxas       bad       Cosmic Entity    
##  6 Absorbing Man bad       Human            
##  7 Adam Monroe   good      <NA>             
##  8 Adam Strange  good      Human            
##  9 Agent 13      good      <NA>             
## 10 Agent Bob     good      Human            
## # ℹ 724 more rows
```
…
```r
superhero_info <- superhero_info %>% 
  mutate_all(tolower)
```

```r
not_human <- superhero_info %>% 
  select(name, race) %>% 
  filter(race!= "human")
not_human
```

```
## # A tibble: 222 × 2
##    name         race             
##    <chr>        <chr>            
##  1 abe sapien   icthyo sapien    
##  2 abin sur     ungaran          
##  3 abomination  human / radiation
##  4 abraxas      cosmic entity    
##  5 ajax         cyborg           
##  6 alien        xenomorph xx121  
##  7 amazo        android          
##  8 angel        vampire          
##  9 angel dust   mutant           
## 10 anti-monitor god / eternal    
## # ℹ 212 more rows
```

## Good and Evil
5. Let's make two different data frames, one focused on the "good guys" and another focused on the "bad guys".

```r
good_guys <- superhero_info %>% 
  filter(alignment=="good")
good_guys
```

```
## # A tibble: 496 × 10
##    name  gender eye_color race  hair_color height publisher skin_color alignment
##    <chr> <chr>  <chr>     <chr> <chr>      <chr>  <chr>     <chr>      <chr>    
##  1 a-bo… male   yellow    human no hair    203    marvel c… <NA>       good     
##  2 abe … male   blue      icth… no hair    191    dark hor… blue       good     
##  3 abin… male   blue      unga… no hair    185    dc comics red        good     
##  4 adam… male   blue      <NA>  blond      <NA>   nbc - he… <NA>       good     
##  5 adam… male   blue      human blond      185    dc comics <NA>       good     
##  6 agen… female blue      <NA>  blond      173    marvel c… <NA>       good     
##  7 agen… male   brown     human brown      178    marvel c… <NA>       good     
##  8 agen… male   <NA>      <NA>  <NA>       191    marvel c… <NA>       good     
##  9 alan… male   blue      <NA>  blond      180    dc comics <NA>       good     
## 10 alex… male   <NA>      <NA>  <NA>       <NA>   nbc - he… <NA>       good     
## # ℹ 486 more rows
## # ℹ 1 more variable: weight <chr>
```


```r
bad_guys <- superhero_info %>% 
  filter(alignment=="bad")
bad_guys
```

```
## # A tibble: 207 × 10
##    name  gender eye_color race  hair_color height publisher skin_color alignment
##    <chr> <chr>  <chr>     <chr> <chr>      <chr>  <chr>     <chr>      <chr>    
##  1 abom… male   green     huma… no hair    203    marvel c… <NA>       bad      
##  2 abra… male   blue      cosm… black      <NA>   marvel c… <NA>       bad      
##  3 abso… male   blue      human no hair    193    marvel c… <NA>       bad      
##  4 air-… male   blue      <NA>  white      188    marvel c… <NA>       bad      
##  5 ajax  male   brown     cybo… black      193    marvel c… <NA>       bad      
##  6 alex… male   <NA>      human <NA>       <NA>   wildstorm <NA>       bad      
##  7 alien male   <NA>      xeno… no hair    244    dark hor… black      bad      
##  8 amazo male   red       andr… <NA>       257    dc comics <NA>       bad      
##  9 ammo  male   brown     human black      188    marvel c… <NA>       bad      
## 10 ange… female <NA>      <NA>  <NA>       <NA>   image co… <NA>       bad      
## # ℹ 197 more rows
## # ℹ 1 more variable: weight <chr>
```
…
11. Let's make a new variable that is the ratio of height to weight. Call this variable `height_weight_ratio`.

```r
superhero_info %>%
  mutate(weight_new= as.numeric(weight)) %>% 
  mutate(height_new= as.numeric(height)) %>% 
  mutate(height_weight_ratio= height_new/weight_new) %>% select(name, height_new, weight_new, height_weight_ratio)
```

```
## # A tibble: 734 × 4
##    name          height_new weight_new height_weight_ratio
##    <chr>              <dbl>      <dbl>               <dbl>
##  1 a-bomb               203        441               0.460
##  2 abe sapien           191         65               2.94 
##  3 abin sur             185         90               2.06 
##  4 abomination          203        441               0.460
##  5 abraxas               NA         NA              NA    
##  6 absorbing man        193        122               1.58 
##  7 adam monroe           NA         NA              NA    
##  8 adam strange         185         88               2.10 
##  9 agent 13             173         61               2.84 
## 10 agent bob            178         81               2.20 
## # ℹ 724 more rows
```

12. Who has the highest height to weight ratio?  

```r
superhero_info %>%
  mutate(weight_new= as.numeric(weight)) %>% 
  mutate(height_new= as.numeric(height)) %>% 
  mutate(height_weight_ratio= height_new/weight_new) %>% select(name, height_new, weight_new, height_weight_ratio) %>% 
  arrange(desc(height_weight_ratio))
```

```
## # A tibble: 734 × 4
##    name            height_new weight_new height_weight_ratio
##    <chr>                <dbl>      <dbl>               <dbl>
##  1 groot                  701          4              175.  
##  2 galactus               876         16               54.8 
##  3 fin fang foom          975         18               54.2 
##  4 longshot               188         36                5.22
##  5 jack-jack               71         14                5.07
##  6 rocket raccoon         122         25                4.88
##  7 dash                   122         27                4.52
##  8 howard the duck         79         18                4.39
##  9 swarm                  196         47                4.17
## 10 yoda                    66         17                3.88
## # ℹ 724 more rows
```
…
13. How many superheros have a combination of agility, stealth, super_strength, stamina?

```r
superhero_powers <- clean_names(superhero_powers)
```


```r
superhero_powers %>% 
  select(hero_names, agility, stealth, super_strength, stamina) %>% filter(agility=="TRUE", stealth=="TRUE", super_strength=="TRUE", stamina=="TRUE")
```

```
## # A tibble: 40 × 5
##    hero_names  agility stealth super_strength stamina
##    <chr>       <lgl>   <lgl>   <lgl>          <lgl>  
##  1 Alex Mercer TRUE    TRUE    TRUE           TRUE   
##  2 Angel       TRUE    TRUE    TRUE           TRUE   
##  3 Ant-Man II  TRUE    TRUE    TRUE           TRUE   
##  4 Aquaman     TRUE    TRUE    TRUE           TRUE   
##  5 Batman      TRUE    TRUE    TRUE           TRUE   
##  6 Black Flash TRUE    TRUE    TRUE           TRUE   
##  7 Black Manta TRUE    TRUE    TRUE           TRUE   
##  8 Brundlefly  TRUE    TRUE    TRUE           TRUE   
##  9 Buffy       TRUE    TRUE    TRUE           TRUE   
## 10 Cable       TRUE    TRUE    TRUE           TRUE   
## # ℹ 30 more rows
```
…
