…
```r
bison
```

```
## # A tibble: 8,325 × 8
##    data_code rec_year rec_month rec_day animal_code animal_sex animal_weight
##    <chr>        <dbl>     <dbl>   <dbl> <chr>       <chr>              <dbl>
##  1 CBH01         1994        11       8 813         F                    890
##  2 CBH01         1994        11       8 834         F                   1074
##  3 CBH01         1994        11       8 B-301       F                   1060
##  4 CBH01         1994        11       8 B-402       F                    989
##  5 CBH01         1994        11       8 B-403       F                   1062
##  6 CBH01         1994        11       8 B-502       F                    978
##  7 CBH01         1994        11       8 B-503       F                   1068
##  8 CBH01         1994        11       8 B-504       F                   1024
##  9 CBH01         1994        11       8 B-601       F                    978
## 10 CBH01         1994        11       8 B-602       F                   1188
## # ℹ 8,315 more rows
## # ℹ 1 more variable: animal_yob <dbl>
```
## 3. New data frame with code, sex, weight, and age

```r
new_bison <- select(bison, "data_code", "animal_sex", "animal_weight", "animal_yob")
new_bison
```

```
## # A tibble: 8,325 × 4
##    data_code animal_sex animal_weight animal_yob
##    <chr>     <chr>              <dbl>      <dbl>
##  1 CBH01     F                    890       1981
##  2 CBH01     F                   1074       1983
##  3 CBH01     F                   1060       1983
##  4 CBH01     F                    989       1984
##  5 CBH01     F                   1062       1984
##  6 CBH01     F                    978       1985
##  7 CBH01     F                   1068       1985
##  8 CBH01     F                   1024       1985
##  9 CBH01     F                    978       1986
## 10 CBH01     F                   1188       1986
## # ℹ 8,315 more rows
```
## 4. Restrict to year 1980 to 1990. 

```r
new_bison %>% 
  filter(between(animal_yob, 1980, 1990))
```

```
## # A tibble: 435 × 4
##    data_code animal_sex animal_weight animal_yob
##    <chr>     <chr>              <dbl>      <dbl>
##  1 CBH01     F                    890       1981
##  2 CBH01     F                   1074       1983
##  3 CBH01     F                   1060       1983
##  4 CBH01     F                    989       1984
##  5 CBH01     F                   1062       1984
##  6 CBH01     F                    978       1985
##  7 CBH01     F                   1068       1985
##  8 CBH01     F                   1024       1985
##  9 CBH01     F                    978       1986
## 10 CBH01     F                   1188       1986
## # ℹ 425 more rows
```
## 5. filter by sex

```r
female_bison <- new_bison %>% 
  filter(between(animal_yob, 1980, 1990)) %>% 
  filter(animal_sex=="F")
female_bison
```

```
## # A tibble: 414 × 4
##    data_code animal_sex animal_weight animal_yob
##    <chr>     <chr>              <dbl>      <dbl>
##  1 CBH01     F                    890       1981
##  2 CBH01     F                   1074       1983
##  3 CBH01     F                   1060       1983
##  4 CBH01     F                    989       1984
##  5 CBH01     F                   1062       1984
##  6 CBH01     F                    978       1985
##  7 CBH01     F                   1068       1985
##  8 CBH01     F                   1024       1985
##  9 CBH01     F                    978       1986
## 10 CBH01     F                   1188       1986
## # ℹ 404 more rows
```



```r
male_bison <- new_bison %>% 
  filter(between(animal_yob, 1980, 1990)) %>% 
  filter(animal_sex=="M")
male_bison
```

```
## # A tibble: 21 × 4
##    data_code animal_sex animal_weight animal_yob
##    <chr>     <chr>              <dbl>      <dbl>
##  1 CBH01     M                   1728       1987
##  2 CBH01     M                   1726       1988
##  3 CBH01     M                   1712       1988
##  4 CBH01     M                   1306       1989
##  5 CBH01     M                   1682       1989
##  6 CBH01     M                   1594       1989
##  7 CBH01     M                   1552       1990
##  8 CBH01     M                   1572       1990
##  9 CBH01     M                   1538       1990
## 10 CBH01     M                   1422       1990
## # ℹ 11 more rows
```
…
