…
```r
penguins %>% 
  group_by(species) %>% 
  count(bill_length_mm)
```

```
## # A tibble: 210 × 3
## # Groups:   species [3]
##    species bill_length_mm     n
##    <fct>            <dbl> <int>
##  1 Adelie            32.1     1
##  2 Adelie            33.1     1
##  3 Adelie            33.5     1
##  4 Adelie            34       1
##  5 Adelie            34.1     1
##  6 Adelie            34.4     1
##  7 Adelie            34.5     1
##  8 Adelie            34.6     2
##  9 Adelie            35       2
## 10 Adelie            35.1     1
## # ℹ 200 more rows
```
…
