…
4. Refocus the data only to include country, isscaap_taxonomic_group, asfis_species_name, asfis_species_number, year, catch.

```r
fisheries_tidy %>% 
  select(country, isscaap_taxonomic_group, asfis_species_name, asfis_species_number, year, catch)
```

```
## # A tibble: 376,771 × 6
##    country isscaap_taxonomic_group asfis_species_name asfis_species_number  year
##    <fct>   <chr>                   <chr>              <fct>                <dbl>
##  1 Albania Sharks, rays, chimaeras Squatinidae        10903XXXXX            1995
##  2 Albania Sharks, rays, chimaeras Squatinidae        10903XXXXX            1996
##  3 Albania Sharks, rays, chimaeras Squatinidae        10903XXXXX            1997
##  4 Albania Sharks, rays, chimaeras Squatinidae        10903XXXXX            1998
##  5 Albania Sharks, rays, chimaeras Squatinidae        10903XXXXX            1999
##  6 Albania Sharks, rays, chimaeras Squatinidae        10903XXXXX            2000
##  7 Albania Sharks, rays, chimaeras Squatinidae        10903XXXXX            2001
##  8 Albania Sharks, rays, chimaeras Squatinidae        10903XXXXX            2002
##  9 Albania Sharks, rays, chimaeras Squatinidae        10903XXXXX            2003
## 10 Albania Sharks, rays, chimaeras Squatinidae        10903XXXXX            2004
## # ℹ 376,761 more rows
## # ℹ 1 more variable: catch <dbl>
```
…
6. Which country had the largest overall catch in the year 2000?

```r
fisheries_tidy %>% 
  select(country, year, catch) %>% 
  filter(year==2000) %>% 
  arrange(desc(catch))
```

```
## # A tibble: 8,793 × 3
##    country                   year catch
##    <fct>                    <dbl> <dbl>
##  1 China                     2000  9068
##  2 Peru                      2000  5717
##  3 Russian Federation        2000  5065
##  4 Viet Nam                  2000  4945
##  5 Chile                     2000  4299
##  6 China                     2000  3288
##  7 China                     2000  2782
##  8 United States of America  2000  2438
##  9 China                     2000  1234
## 10 Philippines               2000   999
## # ℹ 8,783 more rows
```

7. Which country caught the most sardines (_Sardina pilchardus_) between the years 1990-2000?

```r
fisheries_tidy %>% 
  select(country, asfis_species_name, year, catch) %>% 
  filter(asfis_species_name=="Sardina pilchardus") %>% 
  filter(between(year,1990, 2000)) %>% 
  arrange(desc(catch))
```

```
## # A tibble: 336 × 4
##    country            asfis_species_name  year catch
##    <fct>              <chr>              <dbl> <dbl>
##  1 Morocco            Sardina pilchardus  1994   947
##  2 Morocco            Sardina pilchardus  1996   925
##  3 Spain              Sardina pilchardus  1996   912
##  4 Morocco            Sardina pilchardus  2000   859
##  5 Morocco            Sardina pilchardus  1990   845
##  6 Morocco            Sardina pilchardus  1991   827
##  7 Morocco            Sardina pilchardus  1998   723
##  8 Morocco            Sardina pilchardus  1993   710
##  9 Russian Federation Sardina pilchardus  1992   627
## 10 Russian Federation Sardina pilchardus  1991   579
## # ℹ 326 more rows
```

8. Which five countries caught the most cephalopods between 2008-2012?

```r
fisheries_tidy %>% 
  select(country, isscaap_taxonomic_group, year, catch) %>% filter(isscaap_taxonomic_group=="Squids, cuttlefishes, octopuses") %>% filter(between(year,2008, 2012)) %>% arrange(desc(catch))
```

```
## # A tibble: 1,801 × 4
##    country                  isscaap_taxonomic_group          year catch
##    <fct>                    <chr>                           <dbl> <dbl>
##  1 Indonesia                Squids, cuttlefishes, octopuses  2012   991
##  2 China                    Squids, cuttlefishes, octopuses  2008   981
##  3 Chile                    Squids, cuttlefishes, octopuses  2012   965
##  4 United States of America Squids, cuttlefishes, octopuses  2010   901
##  5 China                    Squids, cuttlefishes, octopuses  2012   845
##  6 Japan                    Squids, cuttlefishes, octopuses  2010   832
##  7 China                    Squids, cuttlefishes, octopuses  2010   826
##  8 Peru                     Squids, cuttlefishes, octopuses  2010   822
##  9 Korea, Republic of       Squids, cuttlefishes, octopuses  2008   816
## 10 Peru                     Squids, cuttlefishes, octopuses  2009   805
## # ℹ 1,791 more rows
```

9. Which species had the highest catch total between 2008-2012? (hint: Osteichthyes is not a species)

```r
fisheries_tidy %>% 
  select(asfis_species_name, year, catch) %>% 
  filter(between(year, 2008, 2012)) %>%
  filter(asfis_species_name !="Osteichthyes") %>% 
  arrange(desc(catch))
```

```
## # A tibble: 49,554 × 3
##    asfis_species_name     year catch
##    <chr>                 <dbl> <dbl>
##  1 Trichiurus lepturus    2011  8221
##  2 Theragra chalcogramma  2012  8188
##  3 Engraulis ringens      2008  7981
##  4 Clupea harengus        2008  7873
##  5 Clupea harengus        2009  7250
##  6 Engraulis ringens      2012  6880
##  7 Trichiurus lepturus    2010  6841
##  8 Engraulis ringens      2008  6748
##  9 Trichiurus lepturus    2012  6694
## 10 Theragra chalcogramma  2009  6532
## # ℹ 49,544 more rows
```

10. Use the data to do at least one analysis of your choice.

```r
# country with highest catch in year 2009
fisheries_tidy %>%
  select(country, year, catch) %>% 
  filter(year==2009) %>% 
  arrange(desc(catch))
```

```
## # A tibble: 10,119 × 3
##    country             year catch
##    <fct>              <dbl> <dbl>
##  1 Viet Nam            2009  8898
##  2 Norway              2009  7250
##  3 Russian Federation  2009  6532
##  4 Peru                2009  5165
##  5 Myanmar             2009  4923
##  6 China               2009  2788
##  7 China               2009  2440
##  8 Norway              2009   996
##  9 United Kingdom      2009   984
## 10 Iceland             2009   976
## # ℹ 10,109 more rows
```
…
